u5dadd11ea44ec4e5f0bd7aedee051788|1518248814074
u5dadd11ea44ec4e5f0bd7aedee051788|1518248818184
u5dadd11ea44ec4e5f0bd7aedee051788|1518248820169
u3cc71edabb66dc69635bebede9388ed5|1518249366672
u470e6a9f22f42a377adc32d80d411a44|1518249454844
