ua30a40327f4fd9df171387bf0e7c2753|1518249453351
u0cbfcf126429623db41db9f9cdaa4961|1518249457563
ua30a40327f4fd9df171387bf0e7c2753|1518249457660
u87617be71075425912dc2935bd3e07e7|1518249471184
u4c7d2f9a281b3cb5fce91c1699f759ff|1518249469790
u8e36493e28b8cefe6c49cdea893ec4ca|1518250304649
